%YAML 1.1
%TAG !u! tag:unity3d.com,2011:
--- !u!114 &11400000
MonoBehaviour:
  m_ObjectHideFlags: 0
  m_CorrespondingSourceObject: {fileID: 0}
  m_PrefabInstance: {fileID: 0}
  m_PrefabAsset: {fileID: 0}
  m_GameObject: {fileID: 0}
  m_Enabled: 1
  m_EditorHideFlags: 0
  m_Script: {fileID: 11500000, guid: 23d625ba67d16164f972857be108ef3e, type: 3}
  m_Name: Amethyst
  m_EditorClassIdentifier: 
  _id: 25
  _sprite: {fileID: 21300000, guid: 56b65abac885c424c88e58898a9b4550, type: 3}
  _name: "\u0410\u043C\u0435\u0442\u0438\u0441\u0442"
  _tier: 0
  _cost: 25
  _description: 
