%YAML 1.1
%TAG !u! tag:unity3d.com,2011:
--- !u!114 &11400000
MonoBehaviour:
  m_ObjectHideFlags: 0
  m_CorrespondingSourceObject: {fileID: 0}
  m_PrefabInstance: {fileID: 0}
  m_PrefabAsset: {fileID: 0}
  m_GameObject: {fileID: 0}
  m_Enabled: 1
  m_EditorHideFlags: 0
  m_Script: {fileID: 11500000, guid: dc2c8616d3fdbcd4aac5f33d32389486, type: 3}
  m_Name: Lasure
  m_EditorClassIdentifier: 
  _id: 13
  _sprite: {fileID: 21300000, guid: c6e1f193ad83927428e928d8a6321098, type: 3}
  _name: "\u041B\u0430\u0437\u0443\u0440\u0438\u0442"
  _tier: 0
  _cost: 100
  _description: 
