%YAML 1.1
%TAG !u! tag:unity3d.com,2011:
--- !u!114 &11400000
MonoBehaviour:
  m_ObjectHideFlags: 0
  m_CorrespondingSourceObject: {fileID: 0}
  m_PrefabInstance: {fileID: 0}
  m_PrefabAsset: {fileID: 0}
  m_GameObject: {fileID: 0}
  m_Enabled: 1
  m_EditorHideFlags: 0
  m_Script: {fileID: 11500000, guid: 23d625ba67d16164f972857be108ef3e, type: 3}
  m_Name: Potion3
  m_EditorClassIdentifier: 
  _id: 56
  _sprite: {fileID: 21300000, guid: fd0560f261a2aa143be3ff27e457e64d, type: 3}
  _name: "\u0417\u0435\u043B\u044C\u0435 3"
  _tier: 0
  _cost: 300
  _description: 
