%YAML 1.1
%TAG !u! tag:unity3d.com,2011:
--- !u!114 &11400000
MonoBehaviour:
  m_ObjectHideFlags: 0
  m_CorrespondingSourceObject: {fileID: 0}
  m_PrefabInstance: {fileID: 0}
  m_PrefabAsset: {fileID: 0}
  m_GameObject: {fileID: 0}
  m_Enabled: 1
  m_EditorHideFlags: 0
  m_Script: {fileID: 11500000, guid: 23d625ba67d16164f972857be108ef3e, type: 3}
  m_Name: SurprisePotion
  m_EditorClassIdentifier: 
  _id: 61
  _sprite: {fileID: 21300000, guid: a9e6cf5d397efe94b97a7b992a9f77ef, type: 3}
  _name: "\u0417\u0435\u043B\u044C\u0435 \u0441\u044E\u0440\u043F\u0440\u0438\u0437"
  _tier: 0
  _cost: 1000
  _description: 
