%YAML 1.1
%TAG !u! tag:unity3d.com,2011:
--- !u!114 &11400000
MonoBehaviour:
  m_ObjectHideFlags: 0
  m_CorrespondingSourceObject: {fileID: 0}
  m_PrefabInstance: {fileID: 0}
  m_PrefabAsset: {fileID: 0}
  m_GameObject: {fileID: 0}
  m_Enabled: 1
  m_EditorHideFlags: 0
  m_Script: {fileID: 11500000, guid: 6e11d0f4d810eb54bb8c19b13d8b712e, type: 3}
  m_Name: StoneAxe
  m_EditorClassIdentifier: 
  _id: 35
  _sprite: {fileID: 21300000, guid: c7c7e7387e7bfe048bc2695a7f7656cb, type: 3}
  _name: "\u041A\u0430\u043C\u0435\u043D\u043D\u044B\u0439 \u0442\u043E\u043F\u043E\u0440"
  _tier: 2
  _cost: 150
  _description: 
