%YAML 1.1
%TAG !u! tag:unity3d.com,2011:
--- !u!114 &11400000
MonoBehaviour:
  m_ObjectHideFlags: 0
  m_CorrespondingSourceObject: {fileID: 0}
  m_PrefabInstance: {fileID: 0}
  m_PrefabAsset: {fileID: 0}
  m_GameObject: {fileID: 0}
  m_Enabled: 1
  m_EditorHideFlags: 0
  m_Script: {fileID: 11500000, guid: 8eff88fc9e47724409219660055edf0c, type: 3}
  m_Name: IronPicaxeRecipe
  m_EditorClassIdentifier: 
  _pieces:
  - _item: {fileID: 11400000, guid: b1f0ce064d502b94a83e1f860b23ca49, type: 2}
    count: 3
  - _item: {fileID: 11400000, guid: be27daa3367e5ce47919ecb419dbf0b9, type: 2}
    count: 2
  _targetItem: {fileID: 11400000, guid: bc3a30deb92f9234e84bd4d7878b83c6, type: 2}
