%YAML 1.1
%TAG !u! tag:unity3d.com,2011:
--- !u!114 &11400000
MonoBehaviour:
  m_ObjectHideFlags: 0
  m_CorrespondingSourceObject: {fileID: 0}
  m_PrefabInstance: {fileID: 0}
  m_PrefabAsset: {fileID: 0}
  m_GameObject: {fileID: 0}
  m_Enabled: 1
  m_EditorHideFlags: 0
  m_Script: {fileID: 11500000, guid: 8eff88fc9e47724409219660055edf0c, type: 3}
  m_Name: StoneShovelRecipe
  m_EditorClassIdentifier: 
  _pieces:
  - _item: {fileID: 11400000, guid: 331989b590239824e8a23940f16c69ff, type: 2}
    count: 1
  - _item: {fileID: 11400000, guid: be27daa3367e5ce47919ecb419dbf0b9, type: 2}
    count: 2
  _targetItem: {fileID: 11400000, guid: da8ccab0c3a27444bb1b0bfb8d2797f8, type: 2}
