%YAML 1.1
%TAG !u! tag:unity3d.com,2011:
--- !u!114 &11400000
MonoBehaviour:
  m_ObjectHideFlags: 0
  m_CorrespondingSourceObject: {fileID: 0}
  m_PrefabInstance: {fileID: 0}
  m_PrefabAsset: {fileID: 0}
  m_GameObject: {fileID: 0}
  m_Enabled: 1
  m_EditorHideFlags: 0
  m_Script: {fileID: 11500000, guid: 23d625ba67d16164f972857be108ef3e, type: 3}
  m_Name: CoockedChiken
  m_EditorClassIdentifier: 
  _id: 27
  _sprite: {fileID: 21300000, guid: b805602db3d9d9e4d8a65e20459c1119, type: 3}
  _name: "\u0413\u043E\u0442\u043E\u0432\u0430\u044F \u043A\u0443\u0440\u043E\u0447\u043A\u0430"
  _tier: 0
  _description: 
